[{"_id":"5645df9992aad2c05eaaad45",
"scenarioId":1,
"description":"3 séquence(s)",
"typeScenario":"LINEAR",
"eeg":1,
"eyelid":0,
"headMovement":0,
"pulse":1,
"skinConductance":1,
"title":"REPOS 99"},
  {"_id":"5645df9992aad2c05eaaad46",
"scenarioId":2,
"description":"5 séquence(s)",
"typeScenario":"LINEAR",
"eeg":1,
"eyelid":1,
"headMovement":0,
"pulse":1,
"skinConductance":1,
"title":"REVEIL 1"},

  {"_id":"5645df9992aad2c05eaaad47",
"scenarioId":3,
"description":"1 séquence(s)",
"typeScenario":"LINEAR",
"eeg":1,
"eyelid":0,
"headMovement":1,
"pulse":0,
"skinConductance":1,
"title":"TRAVAIL 1"},

  {"_id":"5645df9992aad2c05eaaad48",
"scenarioId":4,
"description":"2 séquence(s)",
"typeScenario":"LINEAR",
"eeg":1,
"eyelid":1,
"headMovement":1,
"pulse":0,
"skinConductance":0,
"title":"REVEIL 2"},

  {"_id":"5645df9992aad2c05eaaad49",
"scenarioId":5,
"description":"2 séquence(s)",
"typeScenario":"LINEAR",
"eeg":1,
"eyelid":0,
"headMovement":1,
"pulse":1,
"skinConductance":0,
"title":"REVEIL 3"},

  {"_id":"5645df9992aad2c05eaaad4a",
"scenarioId":6,
"description":"5 séquence(s)",
"typeScenario":"LINEAR",
"eeg":1,
"eyelid":1,
"headMovement":1,
"pulse":1,
"skinConductance":1,
"title":"REVEIL 4"},

  {"_id":"564c41bc92aad2c05eaaad4b",
"scenarioId":2,
"description":"5 séquence(s)",
"typeScenario":"LINEAR",
"eeg":1,
"eyelid":1,
"headMovement":0,
"pulse":1,
"skinConductance":1,
"title":"REVEIL 1"},

  {"_id":"564c41bc92aad2c05eaaad4c",
"scenarioId":1,
"description":"3 séquence(s)",
"typeScenario":"LINEAR",
"eeg":1,
"eyelid":0,
"headMovement":0,
"pulse":1,
"skinConductance":1,
"title":"REPOS 1"},

  {"_id":"564c41bc92aad2c05eaaad4d",
"scenarioId":3,
"description":"1 séquence(s)",
"typeScenario":"LINEAR",
"eeg":1,
"eyelid":0,
"headMovement":1,
"pulse":0,
"skinConductance":1,
"title":"TRAVAIL 1"},

  {"_id":"564c41bc92aad2c05eaaad4e",
"scenarioId":4,
"description":"2 séquence(s)",
"typeScenario":"LINEAR",
"eeg":1,
"eyelid":1,
"headMovement":1,
"pulse":1,
"skinConductance":1,
"title":"REVEIL 2"},

  {"_id":"564c41bc92aad2c05eaaad4f",
"scenarioId":5,
"description":"2 séquence(s)",
"typeScenario":"LINEAR",
"eeg":1,
"eyelid":0,
"headMovement":0,
"pulse":1,
"skinConductance":0,
"title":"REVEIL 3"},

  {"_id":"564c41bc92aad2c05eaaad50",
"scenarioId":6,
"description":"5 séquence(s)",
"typeScenario":"LINEAR",
"eeg":1,
"eyelid":1,
"headMovement":1,
"pulse":1,
"skinConductance":1,
"title":"REVEIL 4"},

  {"_id":"5697d900383fd6549229895a",
"scenarioId":7,
"description":"5 séquence(s)",
"typeScenario":"LINEAR",
"eeg":1,
"eyelid":0,
"headMovement":0,
"pulse":0,
"skinConductance":0,
"title":"REVEIL 4"},

  {"_id":"5697dc29035ecea2b364021b",
"scenarioId":8,
"description":"5 séquence(s)",
"typeScenario":"LINEAR",
"eeg":1,
"eyelid":0,
"headMovement":0,
"pulse":0,
"skinConductance":0,
"title":"REVEIL 4"},

  {"_id":"5698ab5ef19cdc7d17f129a9",
"scenarioId":9,
"description":"5 séquence(s)",
"typeScenario":"LINEAR",
"eeg":1,
"eyelid":0,
"headMovement":0,
"pulse":0,
"skinConductance":0,
"title":"REVEIL 4"},

  {"_id":"5698aba1f19cdc7d17f129ab",
"scenarioId":10,
"description":"5 séquence(s)",
"typeScenario":"LINEAR",
"eeg":1,
"eyelid":0,
"headMovement":0,
"pulse":0,
"skinConductance":0,
"title":"REVEIL 4"},

  {"_id":"5698abe1f19cdc7d17f129ad",
"scenarioId":11,
"description":"5 séquence(s)",
"typeScenario":"LINEAR",
"eeg":1,
"eyelid":0,
"headMovement":0,
"pulse":0,
"skinConductance":0,
"title":"REVEIL 4"}
]